C:\Users\miche\git-files\spring-security-openid\src\main\java\org\baeldung\config\GoogleOpenIdConnectConfig.java
C:\Users\miche\git-files\spring-security-openid\src\main\java\org\baeldung\security\OpenIdConnectUserDetails.java
C:\Users\miche\git-files\spring-security-openid\src\main\java\org\baeldung\config\HomeController.java
C:\Users\miche\git-files\spring-security-openid\src\main\java\org\baeldung\security\OpenIdConnectFilter.java
C:\Users\miche\git-files\spring-security-openid\src\main\java\org\baeldung\config\SecurityConfig.java
C:\Users\miche\git-files\spring-security-openid\src\main\java\org\baeldung\config\SpringOpenidApplication.java
